{
  "images": [{
      "idiom": "universal",
      "filename": "splash_screen.png",
      "scale": "1x"
    },
    {
      "idiom": "universal",
      "filename": "splash_screen@2x.png",
      "scale": "2x"
    },
    {
      "idiom": "universal",
      "filename": "splash_screen@3x.png",
      "scale": "3x"
    }
  ],
  "info": {
    "version": 1,
    "author": "xcode"
  }
}